<svg width="24" height="20" viewBox="0 0 24 20" fill="none" xmlns="http://www.w3.org/2000/svg">
<path d="M24 2.40514C24 1.08231 22.92 0 21.6 0H2.4C1.08 0 0 1.08231 0 2.40514V16.836C0 18.1588 1.08 19.2411 2.4 19.2411H21.6C22.92 19.2411 24 18.1588 24 16.836V2.40514ZM21.6 2.40514L12 8.41798L2.4 2.40514H21.6ZM21.6 16.836H2.4V4.81027L12 10.8231L21.6 4.81027V16.836Z" fill="#151515"/>
</svg>
